<?xml version="1.0" standalone="no"?>
<!DOCTYPE svg PUBLIC "-//W3C//DTD SVG 1.1//EN" "http://www.w3.org/Graphics/SVG/1.1/DTD/svg11.dtd">
<svg xmlns="http://www.w3.org/2000/svg">
<metadata>Generated by Fontastic.me</metadata>
<defs>
<font id="icons-custom" horiz-adv-x="512">
<font-face font-family="icons-custom" units-per-em="512" ascent="480" descent="-32"/>
<missing-glyph horiz-adv-x="512" />

<glyph unicode="&#97;" d="M281 8l217 0 0 217-217 0z m31 186l155 0 0-155-155 0z m-31 310l0-217 217 0 0 217z m186-186l-155 0 0 155 155 0z m-465-310l217 0 0 217-217 0z m31 186l155 0 0-155-155 0z m-31 93l217 0 0 217-217 0z m31 186l155 0 0-155-155 0z"/>
<glyph unicode="&#99;" d="M373 380l-187 0 0-31 187 0z m0-108l-187 0 0-32 187 0z m0-109l-187 0 0-31 187 0z m-218 109l-30 0 0-32 30 0z m0-109l-30 0 0-31 30 0z m0 217l-30 0 0-31 30 0z m-154 124l0-496 497 0 0 496z m466-465l-435 0 0 434 435 0z"/>
<glyph unicode="&#100;" d="M251 512c-115 0-208-93-208-208 0-115 208-304 208-304 0 0 208 189 208 304 0 115-93 208-208 208z m0-384c-98 0-176 79-176 176 0 97 78 176 176 176 97 0 176-79 176-176 0-97-79-176-176-176z m0 208c-18 0-32-14-32-32 0-18 14-32 32-32 17 0 32 14 32 32 0 18-15 32-32 32z"/>
<glyph unicode="&#101;" d="M0 473l0-434 497 0 0 434z m444-31l-196-195-195 195z m22-372l-435 0 0 350 206-206 11-5 11 5 207 206z"/>
<glyph unicode="&#102;" d="M467 0c0 92-57 171-138 202 51 28 86 82 86 145 0 91-74 165-164 165-91 0-165-74-165-165 0-63 35-117 86-145-80-31-137-110-137-202l32 0c0 3 0 5 0 8 0 102 82 184 184 184 101 0 184-82 184-184 0-3-1-5-1-8z m-346 347c0 72 58 130 130 130 71 0 129-58 129-130 0-72-58-130-129-130-72 0-130 58-130 130z"/>
<glyph unicode="&#98;" d="M256 478c-123 0-223-100-223-223 0-124 100-224 223-224 123 0 223 100 223 224 0 123-100 223-223 223z m0-427c-112 0-203 91-203 204 0 112 91 203 203 203 112 0 203-91 203-203 0-113-91-204-203-204z m-1 276c-9 0-15-6-15-15l0-169c0-9 6-15 15-15 8 0 15 6 15 15l0 169c0 9-7 15-15 15z m19 42c0-10-8-18-19-18-10 0-18 8-18 18 0 10 8 18 18 18 11 0 19-8 19-18z"/>
<glyph unicode="&#103;" d="M483 176l-95 68c-2 1-4 1-6 0-3-1-4-3-4-6l0-32-85 0c-4 0-7-2-7-6l0-58c0-4 3-7 7-7l86 0 0-32c0-2 1-4 3-6 2-1 4 0 6 1l95 68c1 1 2 3 2 5 0 0 0 0 0 0 0 2-1 4-2 5z m-155-66l-33 0c-5 0-9-4-9-9l0 0 0-15-208 0 0 241 91 0c4 0 8 4 8 9l0 90 109 0 0-186 0 0c0-4 4-8 9-8l33 0c5 0 9 4 9 8l0 0 0 1c0 0 0 0 0 0 0 0 0 0 0 0l0 207 0 0 0 21c0 4-4 8-9 8l-168 0-133-132 0-302c0-4 4-8 9-8l292 0c5 0 9 4 9 8l0 13 0 0 0 45c0 5-4 9-9 9z m-218 85l0-47 15 0 0 15 10 0c11 0 17 7 17 16 0 9-6 16-17 16z m28-16c0-2-2-4-4-4l-9 0 0 8 9 0c2 0 4-1 4-4z m22 16l0-47 21 0c15 0 26 9 26 24 0 15-11 23-26 23z m32-23c0-6-4-12-11-12l-7 0 0 23 7 0c8 0 11-5 11-11z m59 11l0 12-35 0 0-47 14 0 0 18 21 0 0 12-21 0 0 5z"/>
<glyph unicode="&#105;" d="M219 397c0 0 116-121 116-121 5-5 8-12 8-20 0-8-3-14-8-19 0 0-116-121-116-121-5-6-12-8-20-8-9 0-15 2-21 8-12 12-12 26 0 41 0 0 95 99 95 99 0 0-95 100-95 100-12 15-12 29 0 41 6 6 13 9 21 9 9 0 15-3 20-9"/>
</font></defs></svg>
